Capítulo 16 Manipulação de dados | Introdução ao R e Simulação
…
16.2.1 Seleção de Colunas com select()

A função select() é usada para selecionar uma ou mais colunas de um
tibble ou data frame. Pode usar nomes de colunas diretamente sem aspas.

# Selecionar uma coluna
select(sw, name)

## # A tibble: 87 × 1
##    name              
##    <chr>             
##  1 Luke Skywalker    
##  2 C-3PO             
##  3 R2-D2             
##  4 Darth Vader       
##  5 Leia Organa       
##  6 Owen Lars         
##  7 Beru Whitesun Lars
##  8 R5-D4             
##  9 Biggs Darklighter 
## 10 Obi-Wan Kenobi    
## # ℹ 77 more rows

# Selecionar várias colunas
select(sw, name, mass, hair_color)

## # A tibble: 87 × 3
##    name                mass hair_color   
##    <chr>              <dbl> <chr>        
##  1 Luke Skywalker        77 blond        
##  2 C-3PO                 75 <NA>         
##  3 R2-D2                 32 <NA>         
##  4 Darth Vader          136 none         
##  5 Leia Organa           49 brown        
##  6 Owen Lars            120 brown, grey  
##  7 Beru Whitesun Lars    75 brown        
##  8 R5-D4                 32 <NA>         
##  9 Biggs Darklighter     84 black        
## 10 Obi-Wan Kenobi        77 auburn, white
## # ℹ 77 more rows

# Selecionar um intervalo de colunas
select(sw, name:hair_color)

## # A tibble: 87 × 4
##    name               height  mass hair_color   
##    <chr>               <int> <dbl> <chr>        
##  1 Luke Skywalker        172    77 blond        
##  2 C-3PO                 167    75 <NA>         
##  3 R2-D2                  96    32 <NA>         
##  4 Darth Vader           202   136 none         
##  5 Leia Organa           150    49 brown        
##  6 Owen Lars             178   120 brown, grey  
##  7 Beru Whitesun Lars    165    75 brown        
##  8 R5-D4                  97    32 <NA>         
##  9 Biggs Darklighter     183    84 black        
## 10 Obi-Wan Kenobi        182    77 auburn, white
## # ℹ 77 more rows

O dplyr possui um conjunto de funções auxiliares muito úteis para
seleção de colunas. As principais são:

starts_with(): para colunas que começam com um texto específico.

ends_with(): para colunas que terminam com um texto específico.

contains(): para colunas que contêm um texto específico.

# Selecionar colunas que terminam com "color"
select(sw, ends_with("color"))

## # A tibble: 87 × 3
##    hair_color    skin_color  eye_color
##    <chr>         <chr>       <chr>    
##  1 blond         fair        blue     
##  2 <NA>          gold        yellow   
##  3 <NA>          white, blue red      
##  4 none          white       yellow   
##  5 brown         light       brown    
##  6 brown, grey   light       blue     
##  7 brown         light       blue     
##  8 <NA>          white, red  red      
##  9 black         light       brown    
## 10 auburn, white fair        blue-gray
## # ℹ 77 more rows

Para remover colunas, basta acrescentar um - antes da seleção.

select(sw, -name, -hair_color)

## # A tibble: 87 × 12
##    height  mass skin_color  eye_color birth_year sex    gender homeworld species
##     <int> <dbl> <chr>       <chr>          <dbl> <chr>  <chr>  <chr>     <chr>  
##  1    172    77 fair        blue            19   male   mascu… Tatooine  Human  
##  2    167    75 gold        yellow         112   none   mascu… Tatooine  Droid  
##  3     96    32 white, blue red             33   none   mascu… Naboo     Droid  
##  4    202   136 white       yellow          41.9 male   mascu… Tatooine  Human  
##  5    150    49 light       brown           19   female femin… Alderaan  Human  
##  6    178   120 light       blue            52   male   mascu… Tatooine  Human  
##  7    165    75 light       blue            47   female femin… Tatooine  Human  
##  8     97    32 white, red  red             NA   none   mascu… Tatooine  Droid  
##  9    183    84 light       brown           24   male   mascu… Tatooine  Human  
## 10    182    77 fair        blue-gray       57   male   mascu… Stewjon   Human  
## # ℹ 77 more rows
## # ℹ 3 more variables: films <list>, vehicles <list>, starships <list>

# Remover múltiplas colunas
select(sw, -ends_with("color"))

## # A tibble: 87 × 11
##    name    height  mass birth_year sex   gender homeworld species films vehicles
##    <chr>    <int> <dbl>      <dbl> <chr> <chr>  <chr>     <chr>   <lis> <list>  
##  1 Luke S…    172    77       19   male  mascu… Tatooine  Human   <chr> <chr>   
##  2 C-3PO      167    75      112   none  mascu… Tatooine  Droid   <chr> <chr>   
##  3 R2-D2       96    32       33   none  mascu… Naboo     Droid   <chr> <chr>   
##  4 Darth …    202   136       41.9 male  mascu… Tatooine  Human   <chr> <chr>   
##  5 Leia O…    150    49       19   fema… femin… Alderaan  Human   <chr> <chr>   
##  6 Owen L…    178   120       52   male  mascu… Tatooine  Human   <chr> <chr>   
##  7 Beru W…    165    75       47   fema… femin… Tatooine  Human   <chr> <chr>   
##  8 R5-D4       97    32       NA   none  mascu… Tatooine  Droid   <chr> <chr>   
##  9 Biggs …    183    84       24   male  mascu… Tatooine  Human   <chr> <chr>   
## 10 Obi-Wa…    182    77       57   male  mascu… Stewjon   Human   <chr> <chr>   
## # ℹ 77 more rows
## # ℹ 1 more variable: starships <list>
…
4. Usando a função select() e as suas funções auxiliares, escreva
códigos que retornem a base sw sem as colunas hair_color,
skin_color e eye_color. Escreva todas as soluções diferentes que
conseguir pensar.

16.2.3 Ordenando a Base de Dados

A função arrange() permite ordenar as linhas de uma tabela com base
nos valores de uma ou mais colunas. Pode ordenar em ordem crescente ou
decrescente, conforme a necessidade.

# Exemplo de ordenação crescente
arrange(sw, mass)

## # A tibble: 87 × 14
##    name     height  mass hair_color skin_color eye_color birth_year sex   gender
##    <chr>     <int> <dbl> <chr>      <chr>      <chr>          <dbl> <chr> <chr> 
##  1 Ratts T…     79    15 none       grey, blue unknown           NA male  mascu…
##  2 Yoda         66    17 white      green      brown            896 male  mascu…
##  3 Wicket …     88    20 brown      brown      brown              8 male  mascu…
##  4 R2-D2        96    32 <NA>       white, bl… red               33 none  mascu…
##  5 R5-D4        97    32 <NA>       white, red red               NA none  mascu…
##  6 Sebulba     112    40 none       grey, red  orange            NA male  mascu…
##  7 Padmé A…    185    45 brown      light      brown             46 fema… femin…
##  8 Dud Bolt     94    45 none       blue, grey yellow            NA male  mascu…
##  9 Wat Tam…    193    48 none       green, gr… unknown           NA male  mascu…
## 10 Sly Moo…    178    48 none       pale       white             NA <NA>  <NA>  
## # ℹ 77 more rows
## # ℹ 5 more variables: homeworld <chr>, species <chr>, films <list>,
## #   vehicles <list>, starships <list>

# Exemplo de ordenação decrescente
arrange(sw, desc(mass))

## # A tibble: 87 × 14
##    name     height  mass hair_color skin_color eye_color birth_year sex   gender
##    <chr>     <int> <dbl> <chr>      <chr>      <chr>          <dbl> <chr> <chr> 
##  1 Jabba D…    175  1358 <NA>       green-tan… orange         600   herm… mascu…
##  2 Grievous    216   159 none       brown, wh… green, y…       NA   male  mascu…
##  3 IG-88       200   140 none       metal      red             15   none  mascu…
##  4 Darth V…    202   136 none       white      yellow          41.9 male  mascu…
##  5 Tarfful     234   136 brown      brown      blue            NA   male  mascu…
##  6 Owen La…    178   120 brown, gr… light      blue            52   male  mascu…
##  7 Bossk       190   113 none       green      red             53   male  mascu…
##  8 Chewbac…    228   112 brown      unknown    blue           200   male  mascu…
##  9 Jek Ton…    180   110 brown      fair       blue            NA   <NA>  <NA>  
## 10 Dexter …    198   102 none       brown      yellow          NA   male  mascu…
## # ℹ 77 more rows
## # ℹ 5 more variables: homeworld <chr>, species <chr>, films <list>,
## #   vehicles <list>, starships <list>

# Ordenar por múltiplas colunas
arrange(sw, desc(height), desc(mass))

## # A tibble: 87 × 14
##    name     height  mass hair_color skin_color eye_color birth_year sex   gender
##    <chr>     <int> <dbl> <chr>      <chr>      <chr>          <dbl> <chr> <chr> 
##  1 Yarael …    264    NA none       white      yellow          NA   male  mascu…
##  2 Tarfful     234   136 brown      brown      blue            NA   male  mascu…
##  3 Lama Su     229    88 none       grey       black           NA   male  mascu…
##  4 Chewbac…    228   112 brown      unknown    blue           200   male  mascu…
##  5 Roos Ta…    224    82 none       grey       orange          NA   male  mascu…
##  6 Grievous    216   159 none       brown, wh… green, y…       NA   male  mascu…
##  7 Taun We     213    NA none       grey       black           NA   fema… femin…
##  8 Tion Me…    206    80 none       grey       black           NA   male  mascu…
##  9 Rugor N…    206    NA none       green      orange          NA   male  mascu…
## 10 Darth V…    202   136 none       white      yellow          41.9 male  mascu…
## # ℹ 77 more rows
## # ℹ 5 more variables: homeworld <chr>, species <chr>, films <list>,
## #   vehicles <list>, starships <list>
…
# Usando pipes para simplificar
sw %>% 
  select(name, birth_year) %>% 
  arrange(desc(birth_year))

16.2.5 Filtrando Linhas da Base de Dados

Para selecionar linhas específicas com base em uma ou mais condições,
utilizamos a função filter().

# filter(sw, height > 170)
# Ou
sw %>% filter(height > 170)

## # A tibble: 55 × 14
##    name     height  mass hair_color skin_color eye_color birth_year sex   gender
##    <chr>     <int> <dbl> <chr>      <chr>      <chr>          <dbl> <chr> <chr> 
##  1 Luke Sk…    172    77 blond      fair       blue            19   male  mascu…
##  2 Darth V…    202   136 none       white      yellow          41.9 male  mascu…
##  3 Owen La…    178   120 brown, gr… light      blue            52   male  mascu…
##  4 Biggs D…    183    84 black      light      brown           24   male  mascu…
##  5 Obi-Wan…    182    77 auburn, w… fair       blue-gray       57   male  mascu…
##  6 Anakin …    188    84 blond      fair       blue            41.9 male  mascu…
##  7 Wilhuff…    180    NA auburn, g… fair       blue            64   male  mascu…
##  8 Chewbac…    228   112 brown      unknown    blue           200   male  mascu…
##  9 Han Solo    180    80 brown      fair       brown           29   male  mascu…
## 10 Greedo      173    74 <NA>       green      black           44   male  mascu…
## # ℹ 45 more rows
## # ℹ 5 more variables: homeworld <chr>, species <chr>, films <list>,
## #   vehicles <list>, starships <list>

Podemos selecionar apenas as colunas name e height para
visualizarmos as alturas:

sw %>% 
  filter(height > 170) %>% 
  select(name, height)

## # A tibble: 55 × 2
##    name              height
##    <chr>              <int>
##  1 Luke Skywalker       172
##  2 Darth Vader          202
##  3 Owen Lars            178
##  4 Biggs Darklighter    183
##  5 Obi-Wan Kenobi       182
##  6 Anakin Skywalker     188
##  7 Wilhuff Tarkin       180
##  8 Chewbacca            228
##  9 Han Solo             180
## 10 Greedo               173
## # ℹ 45 more rows

Podemos estender o filtro para duas ou mais colunas.

filter(sw, height>170, mass>80)

## # A tibble: 21 × 14
##    name     height  mass hair_color skin_color eye_color birth_year sex   gender
##    <chr>     <int> <dbl> <chr>      <chr>      <chr>          <dbl> <chr> <chr> 
##  1 Darth V…    202   136 none       white      yellow          41.9 male  mascu…
##  2 Owen La…    178   120 brown, gr… light      blue            52   male  mascu…
##  3 Biggs D…    183    84 black      light      brown           24   male  mascu…
##  4 Anakin …    188    84 blond      fair       blue            41.9 male  mascu…
##  5 Chewbac…    228   112 brown      unknown    blue           200   male  mascu…
##  6 Jabba D…    175  1358 <NA>       green-tan… orange         600   herm… mascu…
##  7 Jek Ton…    180   110 brown      fair       blue            NA   <NA>  <NA>  
##  8 IG-88       200   140 none       metal      red             15   none  mascu…
##  9 Bossk       190   113 none       green      red             53   male  mascu…
## 10 Ackbar      180    83 none       brown mot… orange          41   male  mascu…
## # ℹ 11 more rows
## # ℹ 5 more variables: homeworld <chr>, species <chr>, films <list>,
## #   vehicles <list>, starships <list>

sw %>% filter(height > 170, mass > 80)

## # A tibble: 21 × 14
##    name     height  mass hair_color skin_color eye_color birth_year sex   gender
##    <chr>     <int> <dbl> <chr>      <chr>      <chr>          <dbl> <chr> <chr> 
##  1 Darth V…    202   136 none       white      yellow          41.9 male  mascu…
##  2 Owen La…    178   120 brown, gr… light      blue            52   male  mascu…
##  3 Biggs D…    183    84 black      light      brown           24   male  mascu…
##  4 Anakin …    188    84 blond      fair       blue            41.9 male  mascu…
##  5 Chewbac…    228   112 brown      unknown    blue           200   male  mascu…
##  6 Jabba D…    175  1358 <NA>       green-tan… orange         600   herm… mascu…
##  7 Jek Ton…    180   110 brown      fair       blue            NA   <NA>  <NA>  
##  8 IG-88       200   140 none       metal      red             15   none  mascu…
##  9 Bossk       190   113 none       green      red             53   male  mascu…
## 10 Ackbar      180    83 none       brown mot… orange          41   male  mascu…
## # ℹ 11 more rows
## # ℹ 5 more variables: homeworld <chr>, species <chr>, films <list>,
## #   vehicles <list>, starships <list>

Podemos filtrar colunas categóricas. O exemplo abaixo retorna uma tabela
apenas com os personagens com cabelo preto ou castanho.

# Filtrar texto com correspondência exata
filter(sw, hair_color == "black" | hair_color == "brown")

## # A tibble: 31 × 14
##    name     height  mass hair_color skin_color eye_color birth_year sex   gender
##    <chr>     <int> <dbl> <chr>      <chr>      <chr>          <dbl> <chr> <chr> 
##  1 Leia Or…    150  49   brown      light      brown           19   fema… femin…
##  2 Beru Wh…    165  75   brown      light      blue            47   fema… femin…
##  3 Biggs D…    183  84   black      light      brown           24   male  mascu…
##  4 Chewbac…    228 112   brown      unknown    blue           200   male  mascu…
##  5 Han Solo    180  80   brown      fair       brown           29   male  mascu…
##  6 Wedge A…    170  77   brown      fair       hazel           21   male  mascu…
##  7 Jek Ton…    180 110   brown      fair       blue            NA   <NA>  <NA>  
##  8 Boba Fe…    183  78.2 black      fair       brown           31.5 male  mascu…
##  9 Lando C…    177  79   black      dark       brown           31   male  mascu…
## 10 Arvel C…     NA  NA   brown      fair       brown           NA   male  mascu…
## # ℹ 21 more rows
## # ℹ 5 more variables: homeworld <chr>, species <chr>, films <list>,
## #   vehicles <list>, starships <list>

# Filtrar texto com correspondência exata
sw %>% filter(hair_color %in% c("black","brown"))

## # A tibble: 31 × 14
##    name     height  mass hair_color skin_color eye_color birth_year sex   gender
##    <chr>     <int> <dbl> <chr>      <chr>      <chr>          <dbl> <chr> <chr> 
##  1 Leia Or…    150  49   brown      light      brown           19   fema… femin…
##  2 Beru Wh…    165  75   brown      light      blue            47   fema… femin…
##  3 Biggs D…    183  84   black      light      brown           24   male  mascu…
##  4 Chewbac…    228 112   brown      unknown    blue           200   male  mascu…
##  5 Han Solo    180  80   brown      fair       brown           29   male  mascu…
##  6 Wedge A…    170  77   brown      fair       hazel           21   male  mascu…
##  7 Jek Ton…    180 110   brown      fair       blue            NA   <NA>  <NA>  
##  8 Boba Fe…    183  78.2 black      fair       brown           31.5 male  mascu…
##  9 Lando C…    177  79   black      dark       brown           31   male  mascu…
## 10 Arvel C…     NA  NA   brown      fair       brown           NA   male  mascu…
## # ℹ 21 more rows
## # ℹ 5 more variables: homeworld <chr>, species <chr>, films <list>,
## #   vehicles <list>, starships <list>
…
e. Personagens que não possuem informação tanto de altura (height)
quanto de massa (mass), ou seja, possuem NA em ambas as colunas.

16.2.7 Modificar e criar novas colunas

A função mutate() permite criar novas colunas ou modificar colunas
existentes, facilitando transformações de dados. O código abaixo divide
os valores da coluna height por 100, mudando a unidade de medida dessa
variável de centímetros para metros.

# Modificar a unidade de medida da coluna height
sw %>% mutate(height = height/100)

## # A tibble: 87 × 14
##    name     height  mass hair_color skin_color eye_color birth_year sex   gender
##    <chr>     <dbl> <dbl> <chr>      <chr>      <chr>          <dbl> <chr> <chr> 
##  1 Luke Sk…   1.72    77 blond      fair       blue            19   male  mascu…
##  2 C-3PO      1.67    75 <NA>       gold       yellow         112   none  mascu…
##  3 R2-D2      0.96    32 <NA>       white, bl… red             33   none  mascu…
##  4 Darth V…   2.02   136 none       white      yellow          41.9 male  mascu…
##  5 Leia Or…   1.5     49 brown      light      brown           19   fema… femin…
##  6 Owen La…   1.78   120 brown, gr… light      blue            52   male  mascu…
##  7 Beru Wh…   1.65    75 brown      light      blue            47   fema… femin…
##  8 R5-D4      0.97    32 <NA>       white, red red             NA   none  mascu…
##  9 Biggs D…   1.83    84 black      light      brown           24   male  mascu…
## 10 Obi-Wan…   1.82    77 auburn, w… fair       blue-gray       57   male  mascu…
## # ℹ 77 more rows
## # ℹ 5 more variables: homeworld <chr>, species <chr>, films <list>,
## #   vehicles <list>, starships <list>

Também poderíamos ter criado essa variável em uma nova coluna. Repare
que a nova coluna height_meters é colocada no final da tabela.

sw %>% mutate(height_meters = height/100)

## # A tibble: 87 × 15
##    name     height  mass hair_color skin_color eye_color birth_year sex   gender
##    <chr>     <int> <dbl> <chr>      <chr>      <chr>          <dbl> <chr> <chr> 
##  1 Luke Sk…    172    77 blond      fair       blue            19   male  mascu…
##  2 C-3PO       167    75 <NA>       gold       yellow         112   none  mascu…
##  3 R2-D2        96    32 <NA>       white, bl… red             33   none  mascu…
##  4 Darth V…    202   136 none       white      yellow          41.9 male  mascu…
##  5 Leia Or…    150    49 brown      light      brown           19   fema… femin…
##  6 Owen La…    178   120 brown, gr… light      blue            52   male  mascu…
##  7 Beru Wh…    165    75 brown      light      blue            47   fema… femin…
##  8 R5-D4        97    32 <NA>       white, red red             NA   none  mascu…
##  9 Biggs D…    183    84 black      light      brown           24   male  mascu…
## 10 Obi-Wan…    182    77 auburn, w… fair       blue-gray       57   male  mascu…
## # ℹ 77 more rows
## # ℹ 6 more variables: homeworld <chr>, species <chr>, films <list>,
## #   vehicles <list>, starships <list>, height_meters <dbl>
…
