Capítulo 25 Respostas | Introdução ao R
…
Mostra os nomes das variáveis, os tipos de dados e os primeiros valores
de cada coluna em uma única visualização, tudo de forma horizontal.

2. Crie uma tabela com apenas as colunas name, gender, e
films. Salve em um objeto chamado sw_simples.

sw_simples <- select(sw, name, gender, films)
sw_simples

## # A tibble: 87 × 3
##    name               gender    films    
##    <chr>              <chr>     <list>   
##  1 Luke Skywalker     masculine <chr [5]>
##  2 C-3PO              masculine <chr [6]>
##  3 R2-D2              masculine <chr [7]>
##  4 Darth Vader        masculine <chr [4]>
##  5 Leia Organa        feminine  <chr [5]>
##  6 Owen Lars          masculine <chr [3]>
##  7 Beru Whitesun Lars feminine  <chr [3]>
##  8 R5-D4              masculine <chr [1]>
##  9 Biggs Darklighter  masculine <chr [1]>
## 10 Obi-Wan Kenobi     masculine <chr [6]>
## # ℹ 77 more rows

3. Selecione apenas as colunas hair_color, skin_color e
eye_color usando a função auxiliar contains().

select(sw, contains("color"))

## # A tibble: 87 × 3
##    hair_color    skin_color  eye_color
##    <chr>         <chr>       <chr>    
##  1 blond         fair        blue     
##  2 <NA>          gold        yellow   
##  3 <NA>          white, blue red      
##  4 none          white       yellow   
##  5 brown         light       brown    
##  6 brown, grey   light       blue     
##  7 brown         light       blue     
##  8 <NA>          white, red  red      
##  9 black         light       brown    
## 10 auburn, white fair        blue-gray
## # ℹ 77 more rows
…
select(sw, -contains("color"))

select(sw, -ends_with("color"))

select(sw, name:mass, birth_year:starships)

25.1.2 Ordenando a base

1. Ordene mass em ordem crescente e birth_year em ordem
decrescente e salve em um objeto chamado sw_ordenados.

sw_ordenados <- arrange(sw, mass, desc(birth_year))
sw_ordenados

## # A tibble: 87 × 14
##    name     height  mass hair_color skin_color eye_color birth_year sex   gender
##    <chr>     <int> <dbl> <chr>      <chr>      <chr>          <dbl> <chr> <chr> 
##  1 Ratts T…     79    15 none       grey, blue unknown           NA male  mascu…
##  2 Yoda         66    17 white      green      brown            896 male  mascu…
##  3 Wicket …     88    20 brown      brown      brown              8 male  mascu…
##  4 R2-D2        96    32 <NA>       white, bl… red               33 none  mascu…
##  5 R5-D4        97    32 <NA>       white, red red               NA none  mascu…
##  6 Sebulba     112    40 none       grey, red  orange            NA male  mascu…
##  7 Padmé A…    185    45 brown      light      brown             46 fema… femin…
##  8 Dud Bolt     94    45 none       blue, grey yellow            NA male  mascu…
##  9 Wat Tam…    193    48 none       green, gr… unknown           NA male  mascu…
## 10 Sly Moo…    178    48 none       pale       white             NA <NA>  <NA>  
## # ℹ 77 more rows
## # ℹ 5 more variables: homeworld <chr>, species <chr>, films <list>,
## #   vehicles <list>, starships <list>
…
## # A tibble: 2 × 2
##   alturas   altura_media
##   <chr>            <dbl>
## 1 maior 175         193.
## 2 menor 175         142.

4. Retorne tabelas (tibbles) apenas com:

a. A altura média dos personagens por espécie.

sw %>% 
  group_by(species) %>% 
  summarize(altura_media = mean(height, na.rm = TRUE))

## # A tibble: 38 × 2
##    species   altura_media
##    <chr>            <dbl>
##  1 Aleena             79 
##  2 Besalisk          198 
##  3 Cerean            198 
##  4 Chagrian          196 
##  5 Clawdite          168 
##  6 Droid             131.
##  7 Dug               112 
##  8 Ewok               88 
##  9 Geonosian         183 
## 10 Gungan            209.
## # ℹ 28 more rows

b. A massa média e mediana dos personagens por espécie.

sw %>%
  filter(!is.na(mass)) %>% 
  group_by(species) %>% 
  summarize(massa_media = mean(mass, na.rm = TRUE),
            massa_mediana = median(mass, na.rm = TRUE))

## # A tibble: 32 × 3
##    species   massa_media massa_mediana
##    <chr>           <dbl>         <dbl>
##  1 Aleena           15            15  
##  2 Besalisk        102           102  
##  3 Cerean           82            82  
##  4 Clawdite         55            55  
##  5 Droid            69.8          53.5
##  6 Dug              40            40  
##  7 Ewok             20            20  
##  8 Geonosian        80            80  
##  9 Gungan           74            74  
## 10 Human            81.3          79  
## # ℹ 22 more rows

c. Apenas o nome dos personagens que participaram de mais de 2
filmes.

sw %>% 
  filter(length(films) > 2) %>% 
  select(name)

## # A tibble: 87 × 1
##    name              
##    <chr>             
##  1 Luke Skywalker    
##  2 C-3PO             
##  3 R2-D2             
##  4 Darth Vader       
##  5 Leia Organa       
##  6 Owen Lars         
##  7 Beru Whitesun Lars
##  8 R5-D4             
##  9 Biggs Darklighter 
## 10 Obi-Wan Kenobi    
## # ℹ 77 more rows
